[
  { "name": "name0", "status": "Spam", "text": "random text 0" },
  { "name": "name1", "status": "Draft", "text": "random text 1" },
  { "name": "name2", "status": "Sent", "text": "random text 2" },
  { "name": "name3", "status": "Sent", "text": "random text 3" },
  { "name": "name4", "status": "Sent", "text": "random text 4" },
  { "name": "name5", "status": "Draft", "text": "random text 5" },
  { "name": "name6", "status": "Sent", "text": "random text 6" },
  { "name": "name7", "status": "Draft", "text": "random text 7" },
  { "name": "name8", "status": "Draft", "text": "random text 8" },
  { "name": "name9", "status": "Draft", "text": "random text 9" },
  { "name": "name10", "status": "Draft", "text": "random text 10" },
  { "name": "name11", "status": "Draft", "text": "random text 11" },
  { "name": "name12", "status": "Spam", "text": "random text 12" },
  { "name": "name13", "status": "Draft", "text": "random text 13" },
  { "name": "name14", "status": "Draft", "text": "random text 14" },
  { "name": "name15", "status": "Spam", "text": "random text 15" },
  { "name": "name16", "status": "Sent", "text": "random text 16" },
  { "name": "name17", "status": "Sent", "text": "random text 17" },
  { "name": "name18", "status": "Draft", "text": "random text 18" },
  { "name": "name19", "status": "Sent", "text": "random text 19" },
  { "name": "name20", "status": "Spam", "text": "random text 20" },
  { "name": "name21", "status": "Sent", "text": "random text 21" },
  { "name": "name22", "status": "Draft", "text": "random text 22" },
  { "name": "name23", "status": "Spam", "text": "random text 23" },
  { "name": "name24", "status": "Draft", "text": "random text 24" },
  { "name": "name25", "status": "Spam", "text": "random text 25" },
  { "name": "name26", "status": "Spam", "text": "random text 26" },
  { "name": "name27", "status": "Spam", "text": "random text 27" },
  { "name": "name28", "status": "Draft", "text": "random text 28" },
  { "name": "name29", "status": "Spam", "text": "random text 29" },
  { "name": "name30", "status": "Spam", "text": "random text 30" },
  { "name": "name31", "status": "Draft", "text": "random text 31" },
  { "name": "name32", "status": "Sent", "text": "random text 32" },
  { "name": "name33", "status": "Spam", "text": "random text 33" },
  { "name": "name34", "status": "Sent", "text": "random text 34" },
  { "name": "name35", "status": "Draft", "text": "random text 35" },
  { "name": "name36", "status": "Sent", "text": "random text 36" },
  { "name": "name37", "status": "Draft", "text": "random text 37" },
  { "name": "name38", "status": "Sent", "text": "random text 38" },
  { "name": "name39", "status": "Draft", "text": "random text 39" },
  { "name": "name40", "status": "Spam", "text": "random text 40" },
  { "name": "name41", "status": "Sent", "text": "random text 41" },
  { "name": "name42", "status": "Sent", "text": "random text 42" },
  { "name": "name43", "status": "Draft", "text": "random text 43" },
  { "name": "name44", "status": "Sent", "text": "random text 44" },
  { "name": "name45", "status": "Spam", "text": "random text 45" },
  { "name": "name46", "status": "Sent", "text": "random text 46" },
  { "name": "name47", "status": "Sent", "text": "random text 47" },
  { "name": "name48", "status": "Sent", "text": "random text 48" },
  { "name": "name49", "status": "Draft", "text": "random text 49" },
  { "name": "name50", "status": "Draft", "text": "random text 50" },
  { "name": "name51", "status": "Sent", "text": "random text 51" },
  { "name": "name52", "status": "Draft", "text": "random text 52" },
  { "name": "name53", "status": "Draft", "text": "random text 53" },
  { "name": "name54", "status": "Draft", "text": "random text 54" },
  { "name": "name55", "status": "Draft", "text": "random text 55" },
  { "name": "name56", "status": "Draft", "text": "random text 56" }
]
